Manual de Aplicación del Paquete INCORER – La Datafora
…
Se asume el paquete cargado y las dependencias disponibles. Los ejemplos exploran funcionalidades propias del paquete: grupos gr_*, exclusiones por patrón, control de la fila “Perú” y salida gt.

4.1.4.1 Tabla simple para una edición (tibble por defecto)

Se desea lo siguiente: obtener la tabla del puntaje General por región para la edición 2025, en formato tibble.

tab1 <- general_tabla(
  ediciones = 2025,
  regiones  = "ALL",
  gt        = FALSE
)
tab1

# A tibble: 25 × 2
   region       puntaje_2025
   <chr>               <dbl>
 1 Amazonas             4.31
 2 Apurímac             5.1 
 3 Arequipa             6.91
 4 Ayacucho             4.85
 5 Cajamarca            4.38
 6 Cusco                5.76
 7 Huancavelica         4.82
 8 Huánuco              4.37
 9 Ica                  6.37
10 Junín                5.22
# ℹ 15 more rows
…
Tabla ancha con todos los indicadores de un pilar en un rango de años

Se desea lo siguiente: obtener, para el pilar LAB, una tabla por regiones con dos indicadores en columnas para las ediciones 2019–2025.

tab1 <- indc_tabla(
  ediciones    = 2019:2020,
  pilar        = "LAB",
  indicadores  = "LAB3",
  regiones     = "ALL", 
  largo        = FALSE
)
tab1

# A tibble: 25 × 3
   region       LAB3_2019 LAB3_2020
   <chr>            <dbl>     <dbl>
 1 Amazonas          2.27      2.66
 2 Apurímac          2.67      3.52
 3 Arequipa          6.94      7.49
 4 Ayacucho          3.25      3.23
 5 Cajamarca         0.16      1.64
 6 Cusco             4.92      5.31
 7 Huancavelica      2.14      0.77
 8 Huánuco           1.87      2.37
 9 Ica               7.38      8.48
10 Junín             4.05      4.66
# ℹ 15 more rows
…
Se desea lo siguiente: limitar a tres indicadores del pilar LAB en 2024–2025 (mezclando código y nombre).

sel <- c("LAB1", "2.2 Formalidad laboral", "LAB5")

tab_sel <- indc_tabla(
  ediciones    = 2025,
  pilar        = "LAB",
  indicadores  = sel,
  regiones     = "ALL",
  usar_codigos = TRUE
)
tab_sel

# A tibble: 25 × 4
   region       LAB1_2025 LAB2_2025 LAB5_2025
   <chr>            <dbl>     <dbl>     <dbl>
 1 Amazonas          2.15      3.99      3.12
 2 Apurímac          3.44      3.53      2.81
 3 Arequipa          8.68      7.43     10   
 4 Ayacucho          2.78      0.9       1.47
 5 Cajamarca         3.49      3.4       2.64
 6 Cusco             3.1       4.62      3.99
 7 Huancavelica      1.51      3.38      3.16
 8 Huánuco           2.79      3.8       1.93
 9 Ica               5.7       4.95      7.78
10 Junín             4.21      4.02      5.39
# ℹ 15 more rows
…
A diferencia de indc_tabla(), esta función trabaja con valores originales (no normalizados a 0–10). Por diseño excluye unidad == “Puntaje del 0 al 10”. Resuelve los indicadores contra un catálogo (code ↔︎ name), acepta atajos como “3” dentro del pilar (→ ECO3/LAB3 según corresponda), y promedia si existen duplicados esporádicos. En salida ancha, las columnas se nombran como CODIGO_EDICION (o un nombre limpio cuando el código no esté disponible). La salida larga conserva unidad y fuente, lo que resulta útil para rótulos y captions de gráficos.

5.2.3 Ejemplos

Valores anchos para un pilar en múltiples ediciones

Se desea lo siguiente: obtener los valores (no puntaje) del pilar ECO entre 2020–2025 para todas las regiones, en formato ancho.

val1 <- valor_tabla(ediciones = 2020:2025, 
                    pilar = "ECO",
                    indicadores = "ECO1")
val1

# A tibble: 25 × 7
   region       ECO1_2020 ECO1_2021 ECO1_2022 ECO1_2023 ECO1_2024 ECO1_2025
   <chr>            <dbl>     <dbl>     <dbl>     <dbl>     <dbl>     <dbl>
 1 Amazonas          3.50      3.48      3.49      3.49      3.49      3.48
 2 Apurímac          3.86      3.81      3.82      3.80      3.83      3.86
 3 Arequipa          4.50      4.42      4.48      4.50      4.50      4.50
 4 Ayacucho          3.77      3.72      3.76      3.78      3.77      3.79
 5 Cajamarca         4.06      4.01      4.06      4.08      4.07      4.08
 6 Cusco             4.34      4.29      4.31      4.33      4.35      4.35
 7 Huancavelica      3.55      3.52      3.54      3.54      3.54      3.59
 8 Huánuco           3.78      3.74      3.78      3.79      3.82      3.84
 9 Ica               4.25      4.19      4.29      4.32      4.32      4.33
10 Junín             4.19      4.14      4.20      4.21      4.20      4.20
# ℹ 15 more rows
…
